EESchema Schematic File Version 4
EELAYER 30 0
EELAYER END
$Descr A4 11693 8268
encoding utf-8
Sheet 1 1
Title "AS5601 - Encoder"
Date "2018-01-21"
Rev ""
Comp "Libre Space Foundation"
Comment1 ""
Comment2 ""
Comment3 ""
Comment4 ""
$EndDescr
NoConn ~ 5900 3220
NoConn ~ 5900 3620
NoConn ~ 5100 3520
Text Label 5900 3320 0    60   ~ 0
SCL
Text Label 5900 3520 0    60   ~ 0
SDA
Text Label 5110 4510 0    60   ~ 0
SCL
Text Label 5910 4410 2    60   ~ 0
SDA
Wire Wire Line
	4400 2670 4800 2670
Wire Wire Line
	4400 2670 4400 2820
Wire Wire Line
	4800 2770 5000 2770
Wire Wire Line
	5000 2770 5000 2820
Wire Wire Line
	4400 3170 4700 3170
Wire Wire Line
	4700 3220 4700 3170
Connection ~ 4700 3170
Wire Wire Line
	4800 2770 4800 2870
Connection ~ 5000 2770
Wire Wire Line
	5260 4410 5110 4410
Wire Wire Line
	5760 4410 5910 4410
Wire Wire Line
	5260 4510 5110 4510
Wire Wire Line
	5760 4510 5910 4510
Wire Wire Line
	5910 4810 5760 4810
Wire Wire Line
	5760 4610 5910 4610
Wire Wire Line
	5910 4610 5910 4710
Connection ~ 5910 4710
Wire Wire Line
	6340 2900 6340 2800
Wire Wire Line
	6340 2800 6490 2800
Wire Wire Line
	6640 2800 6640 2900
Wire Wire Line
	6490 2800 6490 2750
Connection ~ 6490 2800
Wire Wire Line
	4800 2570 4800 2670
Connection ~ 4800 2670
Wire Wire Line
	5260 4610 5110 4610
Wire Wire Line
	4860 4710 5110 4710
Wire Wire Line
	5110 4810 5260 4810
Wire Wire Line
	5110 4610 5110 4710
Connection ~ 5110 4710
Wire Wire Line
	4860 4610 4860 4710
Connection ~ 4860 4710
Text Label 5110 4410 0    60   ~ 0
SDA
Text Label 5910 4510 2    60   ~ 0
SCL
Wire Wire Line
	5760 4710 5910 4710
Text Notes 6590 5185 0    79   ~ 0
Reverse current protection
Wire Wire Line
	4700 3170 5000 3170
Wire Wire Line
	5910 4710 5910 4810
Wire Wire Line
	6490 2800 6640 2800
Wire Wire Line
	5110 4710 5260 4710
Wire Wire Line
	5110 4710 5110 4810
Wire Wire Line
	4860 4710 4860 4810
$Comp
L lsf-kicad:AS5601 U1
U 1 1 5E441480
P 5500 3420
F 0 "U1" H 5057 3466 50  0000 R CNN
F 1 "AS5601" H 5057 3375 50  0000 R CNN
F 2 "Package_SO:SOIC-8_3.9x4.9mm_P1.27mm" H 5500 3420 50  0001 C CNN
F 3 "https://ams.com/as5601#tab/features" H 5500 3420 50  0001 C CNN
F 4 "AS5601-ASOM" H 5500 3420 50  0001 C CNN "Mnf."
F 5 "" H 5500 3420 50  0001 C CNN "Price"
	1    5500 3420
	1    0    0    -1  
$EndComp
Wire Wire Line
	5900 3320 6340 3320
Wire Wire Line
	6640 3520 5900 3520
Wire Wire Line
	5500 3900 5500 3820
Wire Wire Line
	5500 3020 5500 2670
Wire Wire Line
	4800 2670 5500 2670
Wire Wire Line
	5400 3020 5400 2770
Wire Wire Line
	5000 2770 5400 2770
$Comp
L Connector_Generic:Conn_02x05_Odd_Even J1
U 1 1 5E470C75
P 5560 4610
F 0 "J1" H 5610 4185 50  0000 C CNN
F 1 "Conn_02x05_Odd_Even" H 5610 4276 50  0000 C CNN
F 2 "Connector_PinHeader_2.54mm:PinHeader_2x05_P2.54mm_Vertical" H 5560 4610 50  0001 C CNN
F 3 "~" H 5560 4610 50  0001 C CNN
	1    5560 4610
	-1   0    0    1   
$EndComp
$Comp
L Device:Q_NMOS_GSD Q1
U 1 1 5E481B1D
P 6280 4610
F 0 "Q1" V 6529 4610 50  0000 C CNN
F 1 "Q_NMOS_GSD" V 6620 4610 50  0000 C CNN
F 2 "Package_TO_SOT_SMD:SOT-23_Handsoldering" H 6480 4710 50  0001 C CNN
F 3 "~" H 6280 4610 50  0001 C CNN
F 4 "SI2312CDS-T1-GE3" H 6280 4610 50  0001 C CNN "Mnf."
F 5 "" H 6280 4610 50  0001 C CNN "Price"
	1    6280 4610
	0    -1   1    0   
$EndComp
Wire Wire Line
	6280 4410 6280 4270
Wire Wire Line
	6720 4600 6720 4710
Wire Wire Line
	6480 4710 6720 4710
Connection ~ 6720 4710
Wire Wire Line
	6080 4710 5910 4710
$Comp
L power:+5V #PWR0101
U 1 1 5E443836
P 4800 2570
F 0 "#PWR0101" H 4800 2420 50  0001 C CNN
F 1 "+5V" H 4815 2743 50  0000 C CNN
F 2 "" H 4800 2570 50  0001 C CNN
F 3 "" H 4800 2570 50  0001 C CNN
	1    4800 2570
	1    0    0    -1  
$EndComp
$Comp
L power:+5V #PWR0102
U 1 1 5E4440E1
P 6490 2750
F 0 "#PWR0102" H 6490 2600 50  0001 C CNN
F 1 "+5V" H 6505 2923 50  0000 C CNN
F 2 "" H 6490 2750 50  0001 C CNN
F 3 "" H 6490 2750 50  0001 C CNN
	1    6490 2750
	1    0    0    -1  
$EndComp
$Comp
L power:GND #PWR0103
U 1 1 5E446B67
P 4700 3220
F 0 "#PWR0103" H 4700 2970 50  0001 C CNN
F 1 "GND" H 4705 3047 50  0000 C CNN
F 2 "" H 4700 3220 50  0001 C CNN
F 3 "" H 4700 3220 50  0001 C CNN
	1    4700 3220
	1    0    0    -1  
$EndComp
$Comp
L power:GND #PWR0104
U 1 1 5E447EDB
P 5500 3900
F 0 "#PWR0104" H 5500 3650 50  0001 C CNN
F 1 "GND" H 5505 3727 50  0000 C CNN
F 2 "" H 5500 3900 50  0001 C CNN
F 3 "" H 5500 3900 50  0001 C CNN
	1    5500 3900
	1    0    0    -1  
$EndComp
$Comp
L power:+5V #PWR0105
U 1 1 5E44C27C
P 6280 4270
F 0 "#PWR0105" H 6280 4120 50  0001 C CNN
F 1 "+5V" H 6295 4443 50  0000 C CNN
F 2 "" H 6280 4270 50  0001 C CNN
F 3 "" H 6280 4270 50  0001 C CNN
	1    6280 4270
	1    0    0    -1  
$EndComp
$Comp
L power:+5V #PWR0106
U 1 1 5E44C876
P 4860 4610
F 0 "#PWR0106" H 4860 4460 50  0001 C CNN
F 1 "+5V" H 4875 4783 50  0000 C CNN
F 2 "" H 4860 4610 50  0001 C CNN
F 3 "" H 4860 4610 50  0001 C CNN
	1    4860 4610
	1    0    0    -1  
$EndComp
$Comp
L power:GND #PWR0107
U 1 1 5E4507BA
P 6720 4880
F 0 "#PWR0107" H 6720 4630 50  0001 C CNN
F 1 "GND" H 6725 4707 50  0000 C CNN
F 2 "" H 6720 4880 50  0001 C CNN
F 3 "" H 6720 4880 50  0001 C CNN
	1    6720 4880
	1    0    0    -1  
$EndComp
Wire Wire Line
	6720 4710 6720 4880
$Comp
L power:PWR_FLAG #FLG0101
U 1 1 5E45429A
P 6720 4600
F 0 "#FLG0101" H 6720 4675 50  0001 C CNN
F 1 "PWR_FLAG" H 6720 4773 50  0000 C CNN
F 2 "" H 6720 4600 50  0001 C CNN
F 3 "~" H 6720 4600 50  0001 C CNN
	1    6720 4600
	1    0    0    -1  
$EndComp
$Comp
L power:PWR_FLAG #FLG0102
U 1 1 5E455A63
P 4860 4810
F 0 "#FLG0102" H 4860 4885 50  0001 C CNN
F 1 "PWR_FLAG" H 4860 4983 50  0000 C CNN
F 2 "" H 4860 4810 50  0001 C CNN
F 3 "~" H 4860 4810 50  0001 C CNN
	1    4860 4810
	-1   0    0    1   
$EndComp
$Comp
L Device:R_Small R2
U 1 1 5E4590E9
P 6640 3000
F 0 "R2" H 6581 2954 50  0000 R CNN
F 1 "4k7" H 6581 3045 50  0000 R CNN
F 2 "Resistor_SMD:R_0805_2012Metric_Pad1.15x1.40mm_HandSolder" H 6640 3000 50  0001 C CNN
F 3 "~" H 6640 3000 50  0001 C CNN
F 4 "CRCW08054K70JNEA" H 6640 3000 50  0001 C CNN "Mnf."
	1    6640 3000
	-1   0    0    1   
$EndComp
$Comp
L Device:R_Small R1
U 1 1 5E45A760
P 6340 3000
F 0 "R1" H 6281 2954 50  0000 R CNN
F 1 "4k7" H 6281 3045 50  0000 R CNN
F 2 "Resistor_SMD:R_0805_2012Metric_Pad1.15x1.40mm_HandSolder" H 6340 3000 50  0001 C CNN
F 3 "~" H 6340 3000 50  0001 C CNN
F 4 "CRCW08054K70JNEA" H 6340 3000 50  0001 C CNN "Mnf."
	1    6340 3000
	-1   0    0    1   
$EndComp
Wire Wire Line
	6640 3100 6640 3520
Wire Wire Line
	6340 3100 6340 3320
$Comp
L Device:C C1
U 1 1 5E460F04
P 4400 2970
F 0 "C1" H 4285 2924 50  0000 R CNN
F 1 "100n" H 4285 3015 50  0000 R CNN
F 2 "Capacitor_SMD:C_0805_2012Metric_Pad1.15x1.40mm_HandSolder" H 4438 2820 50  0001 C CNN
F 3 "~" H 4400 2970 50  0001 C CNN
F 4 "08053C104KAT2A" H 4400 2970 50  0001 C CNN "Mnf."
	1    4400 2970
	1    0    0    1   
$EndComp
$Comp
L Device:C C2
U 1 1 5E461281
P 5000 2970
F 0 "C2" H 5115 3016 50  0000 L CNN
F 1 "1u" H 5115 2925 50  0000 L CNN
F 2 "Capacitor_SMD:C_0805_2012Metric_Pad1.15x1.40mm_HandSolder" H 5038 2820 50  0001 C CNN
F 3 "~" H 5000 2970 50  0001 C CNN
F 4 "CC0805KKX7R7BB105" H 5000 2970 50  0001 C CNN "Mnf."
	1    5000 2970
	1    0    0    -1  
$EndComp
$Comp
L power:PWR_FLAG #FLG0103
U 1 1 5E46239A
P 4800 2870
F 0 "#FLG0103" H 4800 2945 50  0001 C CNN
F 1 "PWR_FLAG" H 4800 3043 50  0000 C CNN
F 2 "" H 4800 2870 50  0001 C CNN
F 3 "~" H 4800 2870 50  0001 C CNN
	1    4800 2870
	-1   0    0    1   
$EndComp
Wire Wire Line
	5000 3170 5000 3120
Wire Wire Line
	4400 3170 4400 3120
$EndSCHEMATC
